<svg version="1.1" xmlns="http://www.w3.org/2000/svg" width="16" height="16" viewBox="0 0 59 64">
<title>fort-awesome</title>
<path d="M22.857 36v-8c0-0.321-0.25-0.571-0.571-0.571h-3.429c-0.321 0-0.571 0.25-0.571 0.571v8c0 0.321 0.25 0.571 0.571 0.571h3.429c0.321 0 0.571-0.25 0.571-0.571zM41.143 36v-8c0-0.321-0.25-0.571-0.571-0.571h-3.429c-0.321 0-0.571 0.25-0.571 0.571v8c0 0.321 0.25 0.571 0.571 0.571h3.429c0.321 0 0.571-0.25 0.571-0.571zM59.429 37.143v26.857h-22.857v-11.429c0-3.786-3.071-6.857-6.857-6.857s-6.857 3.071-6.857 6.857v11.429h-22.857v-26.857c0-0.321 0.25-0.571 0.571-0.571h3.429c0.321 0 0.571 0.25 0.571 0.571v4h4.571v-22.286c0-0.321 0.25-0.571 0.571-0.571h3.429c0.321 0 0.571 0.25 0.571 0.571v4h4.571v-4c0-0.321 0.25-0.571 0.571-0.571h3.429c0.321 0 0.571 0.25 0.571 0.571v4h4.571v-4c0-0.75 1-0.571 1.464-0.571v-13.964c-0.679-0.321-1.143-1.036-1.143-1.786 0-1.071 0.893-1.964 1.964-1.964s1.964 0.893 1.964 1.964c0 0.75-0.464 1.464-1.143 1.786v0.607c0.964-0.214 1.964-0.357 2.964-0.357 1.464 0 2.857 0.536 4.071 0.536 1.107 0 2.357-0.536 3-0.536 0.321 0 0.571 0.25 0.571 0.571v7.5c0 0.857-2.893 1-3.464 1-1.321 0-2.571-0.536-3.929-0.536-1.071 0-2.179 0.179-3.214 0.429v4.75c0.464 0 1.464-0.179 1.464 0.571v4h4.571v-4c0-0.321 0.25-0.571 0.571-0.571h3.429c0.321 0 0.571 0.25 0.571 0.571v4h4.571v-4c0-0.321 0.25-0.571 0.571-0.571h3.429c0.321 0 0.571 0.25 0.571 0.571v22.286h4.571v-4c0-0.321 0.25-0.571 0.571-0.571h3.429c0.321 0 0.571 0.25 0.571 0.571z"></path>
</svg>
